{
  "dependencies": [
    [
      "accounts-base",
      "1.1.2"
    ],
    [
      "accounts-password",
      "1.0.4"
    ],
    [
      "application-configuration",
      "1.0.3"
    ],
    [
      "base64",
      "1.0.1"
    ],
    [
      "binary-heap",
      "1.0.1"
    ],
    [
      "blaze",
      "2.0.3"
    ],
    [
      "callback-hook",
      "1.0.1"
    ],
    [
      "check",
      "1.0.2"
    ],
    [
      "ddp",
      "1.0.12"
    ],
    [
      "deps",
      "1.0.5"
    ],
    [
      "ejson",
      "1.0.4"
    ],
    [
      "email",
      "1.0.4"
    ],
    [
      "follower-livedata",
      "1.0.2"
    ],
    [
      "geojson-utils",
      "1.0.1"
    ],
    [
      "htmljs",
      "1.0.2"
    ],
    [
      "id-map",
      "1.0.1"
    ],
    [
      "jquery",
      "1.0.1"
    ],
    [
      "json",
      "1.0.1"
    ],
    [
      "localstorage",
      "1.0.1"
    ],
    [
      "logging",
      "1.0.5"
    ],
    [
      "meteor",
      "1.1.3"
    ],
    [
      "minimongo",
      "1.0.5"
    ],
    [
      "mongo",
      "1.0.9"
    ],
    [
      "npm-bcrypt",
      "0.7.7"
    ],
    [
      "observe-sequence",
      "1.0.3"
    ],
    [
      "ordered-dict",
      "1.0.1"
    ],
    [
      "random",
      "1.0.1"
    ],
    [
      "reactive-var",
      "1.0.3"
    ],
    [
      "retry",
      "1.0.1"
    ],
    [
      "service-configuration",
      "1.0.2"
    ],
    [
      "sha",
      "1.0.1"
    ],
    [
      "srp",
      "1.0.1"
    ],
    [
      "templating",
      "1.0.9"
    ],
    [
      "tracker",
      "1.0.3"
    ],
    [
      "underscore",
      "1.0.1"
    ]
  ],
  "pluginDependencies": [],
  "toolVersion": "meteor-tool@1.0.36",
  "format": "1.0"
}